define i32 @if_if_Else() {
B15:
  %t17 = alloca i32, align 4
  %t16 = alloca i32, align 4
  store i32 5, i32* %t16, align 4
  store i32 10, i32* %t17, align 4
  %t4 = load i32, i32* %t16, align 4
  %t5 = icmp eq i32 %t4, 5
  br i1 %t5, label %B18, label %B23
B18:                               	; preds = %B15
  %t6 = load i32, i32* %t17, align 4
  %t7 = icmp eq i32 %t6, 10
  br i1 %t7, label %B24, label %B28
B23:                               	; preds = %B15
  br label %B19
B24:                               	; preds = %B18
  store i32 25, i32* %t16, align 4
  br label %B25
B28:                               	; preds = %B18
  br label %B25
B19:                               	; preds = %B23
  %t10 = load i32, i32* %t16, align 4
  %t11 = add i32 %t10, 15
  store i32 %t11, i32* %t16, align 4
  br label %B20
B25:                               	; preds = %B24, %B28
  br label %B20
B20:                               	; preds = %B19, %B25
  %t12 = load i32, i32* %t16, align 4
  ret i32 %t12
}
define i32 @main() {
B29:
  %t14 = call i32 @if_if_Else()
  ret i32 %t14
}
