define i32 @main() {
B42:
  %t46 = alloca i32, align 4
  %t45 = alloca i32, align 4
  %t44 = alloca i32, align 4
  %t43 = alloca i32, align 4
  store i32 0, i32* %t43, align 4
  store i32 0, i32* %t44, align 4
  store i32 0, i32* %t45, align 4
  br label %B48
B48:                               	; preds = %B42, %B55
  %t7 = load i32, i32* %t43, align 4
  %t8 = icmp slt i32 %t7, 21
  br i1 %t8, label %B47, label %B52
B47:                               	; preds = %B48
  br label %B54
B52:                               	; preds = %B48
  br label %B49
B54:                               	; preds = %B47, %B60
  %t9 = load i32, i32* %t44, align 4
  %t10 = load i32, i32* %t43, align 4
  %t11 = sub i32 101, %t10
  %t12 = icmp slt i32 %t9, %t11
  br i1 %t12, label %B53, label %B58
B49:                               	; preds = %B52
  ret i32 0
B53:                               	; preds = %B54
  %t14 = load i32, i32* %t43, align 4
  %t15 = sub i32 100, %t14
  %t16 = load i32, i32* %t44, align 4
  %t17 = sub i32 %t15, %t16
  store i32 %t17, i32* %t45, align 4
  %t18 = load i32, i32* %t43, align 4
  %t19 = mul i32 5, %t18
  %t20 = load i32, i32* %t44, align 4
  %t21 = mul i32 1, %t20
  %t22 = add i32 %t19, %t21
  %t23 = load i32, i32* %t45, align 4
  %t24 = sdiv i32 %t23, 2
  %t25 = add i32 %t22, %t24
  %t26 = icmp eq i32 %t25, 100
  br i1 %t26, label %B59, label %B63
B58:                               	; preds = %B54
  br label %B55
B59:                               	; preds = %B53
  %t28 = load i32, i32* %t43, align 4
  call void @putint( i32 %t28)
  %t30 = load i32, i32* %t44, align 4
  call void @putint( i32 %t30)
  %t32 = load i32, i32* %t45, align 4
  call void @putint( i32 %t32)
  store i32 10, i32* %t46, align 4
  %t35 = load i32, i32* %t46, align 4
  call void @putch( i32 %t35)
  br label %B60
B63:                               	; preds = %B53
  br label %B60
B55:                               	; preds = %B58
  %t40 = load i32, i32* %t43, align 4
  %t41 = add i32 %t40, 1
  store i32 %t41, i32* %t43, align 4
  br label %B48
B60:                               	; preds = %B59, %B63
  %t37 = load i32, i32* %t44, align 4
  %t38 = add i32 %t37, 1
  store i32 %t38, i32* %t44, align 4
  br label %B54
}
declare void @putint(i32)
declare void @putch(i32)
